<?xml version="1.0" encoding="UTF-8" ?>
<testsuite tests="1" failures="0" name="com.acme.basic.HelloWorldTest" time="0.005" errors="0" skipped="0">
  <properties>
    <property name="java.runtime.name" value="OpenJDK Runtime Environment"/>
    <property name="java.vm.version" value="15+36-1562"/>
    <property name="sun.boot.library.path" value="C:\installables\jdk-15\bin"/>
    <property name="maven.multiModuleProjectDirectory" value="C:/projects/sonarqube/sonar-scanning-examples-master/sonar-scanning-examples-master/sonarqube-scanner-maven/maven-basic"/>
    <property name="java.vm.vendor" value="Oracle Corporation"/>
    <property name="java.vendor.url" value="https://java.oracle.com/"/>
    <property name="guice.disable.misplaced.annotation.check" value="true"/>
    <property name="path.separator" value=";"/>
    <property name="java.vm.name" value="OpenJDK 64-Bit Server VM"/>
    <property name="sun.os.patch.level" value=""/>
    <property name="user.script" value=""/>
    <property name="user.country" value="IN"/>
    <property name="sun.java.launcher" value="SUN_STANDARD"/>
    <property name="java.vm.specification.name" value="Java Virtual Machine Specification"/>
    <property name="user.dir" value="C:\projects\sonarqube\sonar-scanning-examples-master\sonar-scanning-examples-master\sonarqube-scanner-maven\maven-basic"/>
    <property name="java.vm.compressedOopsMode" value="32-bit"/>
    <property name="java.runtime.version" value="15+36-1562"/>
    <property name="os.arch" value="amd64"/>
    <property name="java.io.tmpdir" value="C:\Users\157816\AppData\Local\Temp\"/>
    <property name="line.separator" value="
"/>
    <property name="java.vm.specification.vendor" value="Oracle Corporation"/>
    <property name="user.variant" value=""/>
    <property name="os.name" value="Windows 10"/>
    <property name="classworlds.conf" value="C:/installables/apache-maven-3.6.3/bin/m2.conf"/>
    <property name="sun.jnu.encoding" value="Cp1252"/>
    <property name="sonar.login" value="3094aad3ae42d894aca3c496e57aa71337bd4f1a"/>
    <property name="java.library.path" value="C:\installables\jdk-15\bin;C:\Windows\Sun\Java\bin;C:\Windows\system32;C:\Windows;C:\installables\apache-maven-3.6.3\bin\;C:\installables\jdk-15\bin;C:\Users\157816\AppData\Local\Programs\Git\mingw64\bin;C:\Users\157816\AppData\Local\Programs\Git\usr\bin;C:\Users\157816\bin;C:\Program Files (x86)\Common Files\Oracle\Java\javapath;C:\Program Files\Common Files\Microsoft Shared\Microsoft Online Services;C:\Program Files (x86)\Common Files\Microsoft Shared\Microsoft Online Services;C:\Windows\system32;C:\Windows;C:\Windows\System32\Wbem;C:\Windows\System32\WindowsPowerShell\v1.0;C:\Windows\System32\OpenSSH;C:\Program Files (x86)\PuTTY;C:\Windows\CCM;C:\Windows\CCM;C:\Program Files\Microsoft VS Code\bin;C:\Users\157816\AppData\Local\Microsoft\WindowsApps;C:\installables\jdk-15\bin;C:\Users\157816\AppData\Local\Programs\Git\cmd;."/>
    <property name="maven.conf" value="C:/installables/apache-maven-3.6.3/conf"/>
    <property name="jdk.debug" value="release"/>
    <property name="java.class.version" value="59.0"/>
    <property name="java.specification.name" value="Java Platform API Specification"/>
    <property name="sun.management.compiler" value="HotSpot 64-Bit Tiered Compilers"/>
    <property name="os.version" value="10.0"/>
    <property name="library.jansi.path" value="C:/installables/apache-maven-3.6.3/lib/jansi-native"/>
    <property name="user.home" value="C:\Users\157816"/>
    <property name="user.timezone" value="Asia/Calcutta"/>
    <property name="sonar.host.url" value="http://54.224.207.229:9000"/>
    <property name="file.encoding" value="Cp1252"/>
    <property name="java.specification.version" value="15"/>
    <property name="sonar.projectKey" value="sonarscanner-maven-basic"/>
    <property name="user.name" value="157816"/>
    <property name="java.class.path" value="C:/installables/apache-maven-3.6.3/boot/plexus-classworlds-2.6.0.jar"/>
    <property name="java.vm.specification.version" value="15"/>
    <property name="sun.arch.data.model" value="64"/>
    <property name="sun.java.command" value="org.codehaus.plexus.classworlds.launcher.Launcher verify sonar:sonar -Dsonar.qualitygate.wait=true -Dsonar.projectKey=sonarscanner-maven-basic -Dsonar.host.url=http://54.224.207.229:9000 -Dsonar.login=3094aad3ae42d894aca3c496e57aa71337bd4f1a"/>
    <property name="java.home" value="C:\installables\jdk-15"/>
    <property name="user.language" value="en"/>
    <property name="java.specification.vendor" value="Oracle Corporation"/>
    <property name="java.vm.info" value="mixed mode, sharing"/>
    <property name="java.version" value="15"/>
    <property name="java.vendor" value="Oracle Corporation"/>
    <property name="sun.stderr.encoding" value="cp437"/>
    <property name="maven.home" value="C:\installables\apache-maven-3.6.3"/>
    <property name="sonar.qualitygate.wait" value="true"/>
    <property name="file.separator" value="\"/>
    <property name="java.version.date" value="2020-09-15"/>
    <property name="java.vendor.url.bug" value="https://bugreport.java.com/bugreport/"/>
    <property name="sun.io.unicode.encoding" value="UnicodeLittle"/>
    <property name="sun.cpu.endian" value="little"/>
    <property name="sun.stdout.encoding" value="cp437"/>
    <property name="sun.cpu.isalist" value="amd64"/>
  </properties>
  <testcase classname="com.acme.basic.HelloWorldTest" name="sayHello" time="0.005"/>
</testsuite>